<?xml version="1.0" encoding="utf-8"?>
<!-- Generator: Adobe Illustrator 20.1.0, SVG Export Plug-In . SVG Version: 6.00 Build 0)  -->
<svg version="1.1" id="Icon_3" xmlns="http://www.w3.org/2000/svg" xmlns:xlink="http://www.w3.org/1999/xlink" x="0px" y="0px"
	 viewBox="0 0 150 150" style="enable-background:new 0 0 150 150;" xml:space="preserve">
<style type="text/css">
	.st0{fill:#F6B559;}
	.st1{fill:#EBEEF0;}
	.st2{fill:none;enable-background:new    ;}
	.st3{fill:#393152;}
</style>
<circle id="Ellipse_12_copy_6" class="st0" cx="75" cy="75" r="75"/>
<path class="st1" d="M51,100l15-2l29-29L81,56L53,84L51,100z"/>
<path class="st1" d="M99,65L86,51l6-5h3l10,9v3L99,65z"/>
<path class="st2" d="z"/>
<g>
	<g>
		<path class="st3" d="M50.8,84.1c-0.2,0.2-0.4,0.5-0.4,0.8l-2.3,15.8c-0.1,0.5,0.1,0.9,0.4,1.3c0.3,0.3,0.8,0.5,1.3,0.4l15.9-2
			c0.3,0,0.6-0.2,0.9-0.4l29.2-28.6c0.6-0.6,0.6-1.5,0-2.1c-0.6-0.6-1.5-0.6-2.1,0L64.8,97.6l-13.4,1.7l1.9-13.4l28.8-28.2
			c0.6-0.6,0.6-1.5,0-2.1s-1.5-0.6-2.1,0L50.8,84.1L50.8,84.1z"/>
		<path class="st3" d="M86.8,62.5L63,85.7c-0.6,0.6-0.6,1.5,0,2.1c0.6,0.6,1.5,0.6,2.1,0l23.8-23.2c0.6-0.6,0.6-1.5,0-2.1
			C88.3,61.9,87.4,61.9,86.8,62.5z"/>
		<path class="st3" d="M89.2,46.5l-4.8,4.7c-0.6,0.6-0.6,1.5,0,2.1L98,67.1c0.6,0.6,1.5,0.6,2.1,0l4.8-4.7c2.3-2.3,2.4-6,0.1-8.3
			l-7.5-7.6C95.2,44.3,91.5,44.2,89.2,46.5z M102.8,60.4L99.1,64L87.6,52.3l3.7-3.6c1.1-1.1,3-1.1,4.1,0l7.5,7.6
			C103.9,57.4,103.9,59.2,102.8,60.4z"/>
	</g>
</g>
<rect x="77.1" y="61.7" transform="matrix(0.7071 0.7071 -0.7071 0.7071 70.4782 -43.9121)" class="st3" width="22.4" height="2.9"/>
<rect x="48.3" y="89.8" transform="matrix(0.7071 0.7071 -0.7071 0.7071 81.9694 -15.3382)" class="st3" width="22.4" height="2.9"/>
</svg>
