<?xml version="1.0" encoding="utf-8"?>
<!-- Generator: Adobe Illustrator 20.1.0, SVG Export Plug-In . SVG Version: 6.00 Build 0)  -->
<svg version="1.1" id="Icon_1" xmlns="http://www.w3.org/2000/svg" xmlns:xlink="http://www.w3.org/1999/xlink" x="0px" y="0px"
	 viewBox="0 0 150 150" style="enable-background:new 0 0 150 150;" xml:space="preserve">
<style type="text/css">
	.st0{fill:#F6B559;}
	.st1{fill:#EBEEF0;}
	.st2{fill:none;enable-background:new    ;}
	.st3{fill:#393152;}
	.st4{fill:#EBEEF0;stroke:#393152;stroke-width:3;}
	.st5{fill:#393152;stroke:#393152;}
</style>
<circle id="Ellipse_12_copy_4" class="st0" cx="75" cy="75" r="75"/>
<path class="st1" d="M46,105c2.3,0.5,3.7,0.8,6,1l8-4l10,3h13l13-6l7-9l4-15l-3-13l-8-10l-12-6l-10-1l-13,4l-8,7l-5,8l-1,6v14l6,12
	l-4,6C49,102,44.6,104.5,46,105z"/>
<path class="st2" d="z"/>
<path class="st3" d="M61,68h16c0.6,0,1,0.4,1,1v1c0,0.6-0.4,1-1,1H61c-0.6,0-1-0.4-1-1v-1C60,68.4,60.4,68,61,68z"/>
<path id="Rectangle_26_copy" class="st3" d="M61,74h10c0.6,0,1,0.4,1,1v1c0,0.6-0.4,1-1,1H61c-0.6,0-1-0.4-1-1v-1
	C60,74.4,60.4,74,61,74z"/>
<path id="Rectangle_26_copy_2" class="st3" d="M61,80h20c0.6,0,1,0.4,1,1v1c0,0.6-0.4,1-1,1H61c-0.6,0-1-0.4-1-1v-1
	C60,80.4,60.4,80,61,80z"/>
<path class="st2" d="z"/>
<path class="st3" d="M46.6,102.2c-1,0.5-1.5,1.5-1.3,2.6c0.2,1.1,1,1.9,2.1,2.1c0.8,0.1,1.6,0.2,2.5,0.2c2.4,0,6.8-0.5,11.2-3.6
	c4.7,2.6,9.9,3.9,15.3,3.9c8.5,0,16.4-3.3,22.4-9.3c12.3-12.3,12.3-32.4,0-44.8c-6-6-13.9-9.3-22.4-9.3S59.9,47.3,54,53.3
	C42.4,64.9,41.6,83.5,52.1,96C50.6,99,48.8,101.1,46.6,102.2z M55.8,55.1c5.5-5.5,12.8-8.5,20.6-8.5s15.1,3,20.6,8.5
	c11.3,11.3,11.3,29.8,0,41.2c-5.5,5.5-12.8,8.5-20.6,8.5c-5.2,0-10.3-1.4-14.7-4c-0.2-0.1-0.4-0.2-0.6-0.2c-0.3,0-0.6,0.1-0.8,0.3
	c-4,3.1-8.2,3.6-10.4,3.6c-0.6,0-1.2,0-1.8-0.1c2.8-1.5,5.1-4.2,6.7-8c0.2-0.5,0.1-1-0.2-1.4C44.4,83.4,44.9,65.9,55.8,55.1z"/>
<circle class="st4" cx="100.5" cy="62.5" r="15.5"/>
<g>
	<path class="st5" d="M103.9,61.3c0.8-0.6,1.2-1.5,1.2-2.7c0-1-0.3-1.8-1-2.5c-0.6-0.7-1.5-1-2.5-1h-5.4c-0.3,0-0.5,0.2-0.5,0.6
		c0,0.3,0.2,0.6,0.5,0.6h1.2v8H96c-0.3,0-0.5,0.2-0.5,0.6c0,0.3,0.2,0.6,0.5,0.6h1.6v2h-1.2c-0.3,0-0.5,0.2-0.5,0.6s0.2,0.6,0.5,0.6
		h6.1c1.1,0,2-0.3,2.7-1c0.6-0.7,1-1.5,1-2.6C106.1,63,105.3,61.8,103.9,61.3L103.9,61.3z M98.6,56.2h3.1c0.7,0,1.3,0.2,1.8,0.7
		c0.5,0.5,0.6,1,0.6,1.7c0,0.7-0.2,1.2-0.6,1.7c-0.5,0.5-1,0.7-1.6,0.7h-3.2L98.6,56.2C98.6,56.2,98.6,56.2,98.6,56.2L98.6,56.2z
		 M104.3,66.6c-0.5,0.5-1.1,0.7-1.9,0.7h-3.8v-2h2.1c0.3,0,0.5-0.2,0.5-0.6c0-0.3-0.2-0.6-0.5-0.6h-2.1V62l0,0h3.8
		c0.8,0,1.4,0.2,1.9,0.7c0.5,0.5,0.7,1.1,0.7,2C105,65.5,104.8,66.2,104.3,66.6L104.3,66.6z"/>
</g>
</svg>
