<?xml version="1.0" encoding="utf-8"?>
<!-- Generator: Adobe Illustrator 20.1.0, SVG Export Plug-In . SVG Version: 6.00 Build 0)  -->
<svg version="1.1" id="Icon_1" xmlns="http://www.w3.org/2000/svg" xmlns:xlink="http://www.w3.org/1999/xlink" x="0px" y="0px"
	 viewBox="0 0 150 150" style="enable-background:new 0 0 150 150;" xml:space="preserve">
<style type="text/css">
	.st0{fill:#F6B559;}
	.st1{fill:#EBEEF0;stroke:#393152;stroke-width:3;}
	.st2{fill:#393152;}
	.st3{fill:#EBEEF0;}
</style>
<circle class="st0" cx="75" cy="75" r="75"/>
<path class="st1" d="M46.5,97c0,0-0.6-12,9.5-12s9.5,12,9.5,12"/>
<path id="Shape_19_copy" class="st1" d="M28.5,83c0,0-0.6-12,9.5-12s9.5,12,9.5,12"/>
<path id="Shape_19_copy_2" class="st1" d="M64.5,83c0,0-0.6-12,9.5-12s9.5,12,9.5,12"/>
<path id="Shape_19_copy_3" class="st1" d="M82.5,97c0,0-0.6-12,9.5-12s9.5,12,9.5,12"/>
<path id="Shape_19_copy_4" class="st1" d="M100.5,83c0,0-0.6-12,9.5-12s9.5,12,9.5,12"/>
<rect x="27" y="82" class="st2" width="22" height="3"/>
<rect id="Rectangle_34_copy" x="63" y="82" class="st2" width="22" height="3"/>
<rect id="Rectangle_34_copy_2" x="99" y="82" class="st2" width="22" height="3"/>
<rect id="Rectangle_34_copy_3" x="81" y="96" class="st2" width="22" height="3"/>
<rect id="Rectangle_34_copy_4" x="45" y="96" class="st2" width="22" height="3"/>
<g>
	<circle class="st3" cx="56" cy="75" r="5.5"/>
	<path class="st2" d="M56,71c2.2,0,4,1.8,4,4s-1.8,4-4,4s-4-1.8-4-4S53.8,71,56,71 M56,68c-3.9,0-7,3.1-7,7s3.1,7,7,7s7-3.1,7-7
		S59.9,68,56,68L56,68z"/>
</g>
<g id="Ellipse_9_copy_4">
	<circle class="st3" cx="110" cy="61" r="5.5"/>
	<path class="st2" d="M110,57c2.2,0,4,1.8,4,4s-1.8,4-4,4s-4-1.8-4-4S107.8,57,110,57 M110,54c-3.9,0-7,3.1-7,7s3.1,7,7,7s7-3.1,7-7
		S113.9,54,110,54L110,54z"/>
</g>
<g id="Ellipse_9_copy">
	<circle class="st3" cx="38" cy="61" r="5.5"/>
	<path class="st2" d="M38,57c2.2,0,4,1.8,4,4s-1.8,4-4,4s-4-1.8-4-4S35.8,57,38,57 M38,54c-3.9,0-7,3.1-7,7s3.1,7,7,7s7-3.1,7-7
		S41.9,54,38,54L38,54z"/>
</g>
<g id="Ellipse_9_copy_2">
	<circle class="st3" cx="74" cy="61" r="5.5"/>
	<path class="st2" d="M74,57c2.2,0,4,1.8,4,4s-1.8,4-4,4s-4-1.8-4-4S71.8,57,74,57 M74,54c-3.9,0-7,3.1-7,7s3.1,7,7,7s7-3.1,7-7
		S77.9,54,74,54L74,54z"/>
</g>
<g id="Ellipse_9_copy_3">
	<circle class="st3" cx="92" cy="75" r="5.5"/>
	<path class="st2" d="M92,71c2.2,0,4,1.8,4,4s-1.8,4-4,4s-4-1.8-4-4S89.8,71,92,71 M92,68c-3.9,0-7,3.1-7,7s3.1,7,7,7s7-3.1,7-7
		S95.9,68,92,68L92,68z"/>
</g>
</svg>
