<?xml version="1.0" encoding="utf-8"?>
<!-- Generator: Adobe Illustrator 20.1.0, SVG Export Plug-In . SVG Version: 6.00 Build 0)  -->
<svg version="1.1" id="Layer_1" xmlns="http://www.w3.org/2000/svg" xmlns:xlink="http://www.w3.org/1999/xlink" x="0px" y="0px"
	 viewBox="0 0 16 17" style="enable-background:new 0 0 16 17;" xml:space="preserve">
<style type="text/css">
	.st0{fill:#F6B559;}
</style>
<g>
	<g>
		<path class="st0" d="M15.7,7.7c-0.1-0.2-0.4-0.2-0.6-0.1C15,7.8,14.9,8,15.1,8.2c0.1,0.2,0.1,0.4,0,0.6c-1,1.3-2.3,2.2-3.7,2.8
			c0.8-0.8,1.2-1.9,1.2-3.1c0-1.2-0.5-2.3-1.2-3.1c0.8,0.3,1.6,0.8,2.3,1.4c0.1,0.1,0.2,0.1,0.3,0.2c0.2,0.1,0.4,0.1,0.6,0
			c0.1-0.2,0.1-0.4,0-0.6c-0.1-0.1-0.2-0.2-0.3-0.2C12.5,4.7,10.3,4,8,4C5,4,2.1,5.3,0.3,7.7c-0.4,0.5-0.4,1.1,0,1.6
			C2.1,11.7,5,13,8,13c3,0,5.9-1.4,7.7-3.8C16.1,8.8,16.1,8.2,15.7,7.7z M0.9,8.8c-0.1-0.2-0.1-0.4,0-0.6c1-1.3,2.3-2.2,3.7-2.8
			C3.9,6.2,3.4,7.3,3.4,8.5c0,1.2,0.5,2.3,1.2,3.1C3.2,11,1.9,10.1,0.9,8.8z M8,12.2C8,12.2,8,12.2,8,12.2C8,12.2,8,12.2,8,12.2
			c-2.1,0-3.8-1.7-3.8-3.7S5.9,4.8,8,4.8c0,0,0,0,0,0c0,0,0,0,0,0c2.1,0,3.8,1.7,3.8,3.7C11.8,10.6,10.1,12.2,8,12.2z"/>
	</g>
</g>
<g>
	<g>
		<path class="st0" d="M8,6.8c-1,0-1.7,0.8-1.7,1.7S7,10.2,8,10.2s1.7-0.8,1.7-1.7S9,6.8,8,6.8z M8,9.4C7.5,9.4,7.1,9,7.1,8.5
			S7.5,7.6,8,7.6S8.9,8,8.9,8.5S8.5,9.4,8,9.4z"/>
	</g>
</g>
<g>
	<g>
		<path class="st0" d="M8,0C7.8,0,7.6,0.2,7.6,0.4v1.5c0,0.2,0.2,0.4,0.4,0.4c0.2,0,0.4-0.2,0.4-0.4V0.4C8.4,0.2,8.2,0,8,0z"/>
	</g>
</g>
<g>
	<g>
		<path class="st0" d="M8,14.7c-0.2,0-0.4,0.2-0.4,0.4v1.5C7.6,16.8,7.8,17,8,17c0.2,0,0.4-0.2,0.4-0.4v-1.5
			C8.4,14.8,8.2,14.7,8,14.7z"/>
	</g>
</g>
<g>
	<g>
		<path class="st0" d="M14,2.5c-0.2-0.2-0.4-0.2-0.6,0l-0.8,0.8c-0.2,0.2-0.2,0.4,0,0.6c0.1,0.1,0.2,0.1,0.3,0.1
			c0.1,0,0.2,0,0.3-0.1L14,3.1C14.2,2.9,14.2,2.6,14,2.5z"/>
	</g>
</g>
<g>
	<g>
		<path class="st0" d="M3.3,13.2c-0.2-0.2-0.4-0.2-0.6,0L2,13.9c-0.2,0.2-0.2,0.4,0,0.6c0.1,0.1,0.2,0.1,0.3,0.1
			c0.1,0,0.2,0,0.3-0.1l0.8-0.8C3.5,13.6,3.5,13.3,3.3,13.2z"/>
	</g>
</g>
<g>
	<g>
		<path class="st0" d="M3.3,3.2L2.5,2.5C2.4,2.3,2.1,2.3,2,2.5C1.8,2.6,1.8,2.9,2,3.1l0.8,0.8C2.8,3.9,2.9,3.9,3,3.9
			c0.1,0,0.2,0,0.3-0.1C3.5,3.7,3.5,3.4,3.3,3.2z"/>
	</g>
</g>
<g>
	<g>
		<path class="st0" d="M14,13.9l-0.8-0.8c-0.2-0.2-0.4-0.2-0.6,0c-0.2,0.2-0.2,0.4,0,0.6l0.8,0.8c0.1,0.1,0.2,0.1,0.3,0.1
			c0.1,0,0.2,0,0.3-0.1C14.2,14.4,14.2,14.1,14,13.9z"/>
	</g>
</g>
</svg>
