<?xml version="1.0" encoding="utf-8"?>
<!-- Generator: Adobe Illustrator 20.1.0, SVG Export Plug-In . SVG Version: 6.00 Build 0)  -->
<svg version="1.1" id="Слой_1" xmlns="http://www.w3.org/2000/svg" xmlns:xlink="http://www.w3.org/1999/xlink" x="0px" y="0px"
	 viewBox="0 0 43 63" style="enable-background:new 0 0 43 63;" xml:space="preserve">
<style type="text/css">
	.st0{fill:#F6B559;stroke:#F6B559;}
</style>
<path id="Rectangle_2_copy_35" class="st0" d="M5.5,12.5h32c2.8,0,5,2.2,5,5v40c0,2.8-2.2,5-5,5h-32c-2.8,0-5-2.2-5-5v-40
	C0.5,14.7,2.7,12.5,5.5,12.5z"/>
</svg>
