<?xml version="1.0" encoding="utf-8"?>
<!-- Generator: Adobe Illustrator 20.1.0, SVG Export Plug-In . SVG Version: 6.00 Build 0)  -->
<svg version="1.1"
	 id="Слой_1" xmlns:cc="http://creativecommons.org/ns#" xmlns:dc="http://purl.org/dc/elements/1.1/" xmlns:rdf="http://www.w3.org/1999/02/22-rdf-syntax-ns#"
	 xmlns="http://www.w3.org/2000/svg" xmlns:xlink="http://www.w3.org/1999/xlink" x="0px" y="0px" viewBox="0 0 50 50"
	 style="enable-background:new 0 0 50 50;" xml:space="preserve">
<style type="text/css">
	.st0{fill:#9A99A7;}
</style>
<path transform="translate(-289.60744,-317.50471)" class="st0" d="M338.9,348.6c-3.3,13.4-16.9,21.5-30.3,18.2
	c-13.4-3.3-21.5-16.9-18.2-30.3c3.3-13.4,16.9-21.5,30.3-18.2C334,321.6,342.2,335.2,338.9,348.6L338.9,348.6z M325.6,338.9
	c0.5-3.3-2-5.1-5.5-6.3l1.1-4.5l-2.7-0.7l-1.1,4.4c-0.7-0.2-1.5-0.3-2.2-0.5l1.1-4.4l-2.7-0.7l-1.1,4.5c-0.6-0.1-1.2-0.3-1.8-0.4
	l0,0l-3.8-0.9l-0.7,2.9c0,0,2,0.5,2,0.5c1.1,0.3,1.3,1,1.3,1.6l-1.3,5.1c0.1,0,0.2,0,0.3,0.1c-0.1,0-0.2,0-0.3-0.1l-1.8,7.2
	c-0.1,0.3-0.5,0.8-1.3,0.7c0,0-2-0.5-2-0.5l-1.4,3.1l3.6,0.9c0.7,0.2,1.3,0.3,2,0.5l-1.1,4.6l2.7,0.7l1.1-4.5
	c0.7,0.2,1.5,0.4,2.2,0.6l-1.1,4.5l2.7,0.7l1.1-4.5c4.7,0.9,8.2,0.5,9.7-3.7c1.2-3.4-0.1-5.4-2.5-6.7
	C323.9,342.6,325.3,341.4,325.6,338.9L325.6,338.9z M319.4,347.7c-0.8,3.4-6.6,1.6-8.4,1.1l1.5-6
	C314.3,343.3,320.2,344.2,319.4,347.7L319.4,347.7z M320.2,338.9c-0.8,3.1-5.5,1.5-7.1,1.1l1.4-5.5C316,334.9,321,335.7,320.2,338.9
	z"/>
</svg>
