<?xml version="1.0" encoding="utf-8"?>
<!-- Generator: Adobe Illustrator 20.1.0, SVG Export Plug-In . SVG Version: 6.00 Build 0)  -->
<svg version="1.1" id="Layer_1" xmlns="http://www.w3.org/2000/svg" xmlns:xlink="http://www.w3.org/1999/xlink" x="0px" y="0px"
	 viewBox="0 0 70 54" style="enable-background:new 0 0 70 54;" xml:space="preserve">
<style type="text/css">
	.st0{fill:#E5B45F;}
</style>
<g>
	<g>
		<path class="st0" d="M12.2,45.6h15.4c0.4,1.2,1.6,2.1,2.9,2.1h9.1c1.4,0,2.5-0.9,2.9-2.1h15.4c0.7,0,1.3-0.6,1.3-1.3
			c0-0.7-0.6-1.3-1.3-1.3H41.3c-0.7,0-1.3,0.6-1.3,1.3v0.3c0,0.3-0.2,0.5-0.5,0.5h-9.1c-0.3,0-0.5-0.2-0.5-0.5v-0.3
			c0-0.7-0.6-1.3-1.3-1.3H12.2c-0.7,0-1.3,0.6-1.3,1.3C10.9,45,11.5,45.6,12.2,45.6z"/>
		<path class="st0" d="M68.7,43h-3.9V10.4c0-0.7-0.6-1.3-1.3-1.3c-0.7,0-1.3,0.6-1.3,1.3v33.9c0,0.7,0.6,1.3,1.3,1.3h3.8v2.1
			c0,2.1-1.7,3.7-3.8,3.7H6.4c-2.1,0-3.8-1.7-3.8-3.7v-2.1h3.8c0.7,0,1.3-0.6,1.3-1.3V10.4c0-0.7-0.6-1.3-1.3-1.3s-1.3,0.6-1.3,1.3
			V43H1.3C0.6,43,0,43.6,0,44.3v3.4C0,51.2,2.9,54,6.4,54h57.3c3.5,0,6.4-2.8,6.4-6.3v-3.4C70,43.6,69.4,43,68.7,43z"/>
	</g>
</g>
<path class="st0" d="M18.3,31.9L18.3,31.9L18.3,31.9l0,2.7h33.4v-2.2l0-0.3c-0.2-1.9-1.3-3.8-3-5.3c-1.7-1.5-3.9-2.7-6.6-3.5
	c-0.9,0.7-1.9,1.2-2.9,1.6c-1.3,0.5-2.7,0.7-4.1,0.7c-1.5,0-3-0.3-4.3-0.8c-1.1-0.4-2.1-1-3-1.7c-2.7,0.7-4.9,1.9-6.6,3.4
	c-1.7,1.5-2.7,3.3-2.9,5.3l0,0L18.3,31.9L18.3,31.9z M35,0c3.1,0,5.8,1.2,7.8,3.2c1.9,1.9,3.1,4.6,3.1,7.5s-1.2,5.6-3.1,7.5
	c-2,2-4.7,3.2-7.8,3.2s-5.8-1.2-7.8-3.2c-1.9-1.9-3.1-4.6-3.1-7.5s1.2-5.6,3.1-7.5C29.2,1.2,32,0,35,0L35,0z M41,4.3
	c-1.5-1.6-3.7-2.5-6-2.5c-2.3,0-4.5,1-6,2.5c-1.6,1.6-2.6,3.9-2.6,6.4s1,4.8,2.6,6.4c1.5,1.6,3.7,2.5,6,2.5c2.3,0,4.4-1,6-2.5
	c1.6-1.6,2.6-3.9,2.6-6.4C43.6,8.2,42.6,5.9,41,4.3L41,4.3z M16.1,31.1c0.3-2.2,1.5-4.1,3.4-5.8c2.1-1.8,4.9-3.3,8.3-4.1l0.7-0.2
	l0.5,0.5c0.8,0.7,1.7,1.3,2.8,1.7c1,0.4,2.1,0.6,3.2,0.6c1.1,0,2.2-0.2,3.1-0.6c1-0.4,1.9-0.9,2.7-1.6l0.5-0.4l0.7,0.2
	c3.3,0.9,6.2,2.4,8.2,4.2c1.8,1.6,3.1,3.5,3.5,5.5H54v0.9v3.5v0.9h-1.2H17.2H16v-0.9v-3.5L16.1,31.1L16.1,31.1z"/>
<rect x="5.1" y="9.1" class="st0" width="10.7" height="2.5"/>
<rect x="54.2" y="9.1" class="st0" width="10.7" height="2.5"/>
</svg>
